Assignment1/Assignment3.5/Avalon_Streaming_Bus.vcd
$date
     Sep 15, 2019       12:45:15
$end

$version
 SystemC 2.3.3-Accellera --- Aug 30 2019 11:43:33
$end

$timescale
     1 ns
$end

$scope module SystemC $end
$var wire    1  aaaaa  clock       $end
$var wire    1  aaaab  ready       $end
$var wire    1  aaaac  valid       $end
$var wire   16  aaaad  data [15:0]  $end
$var wire    2  aaaae  error [1:0]  $end
$var wire    4  aaaaf  channel [3:0]  $end
$upscope $end
$enddefinitions  $end

$comment
All initial values are dumped below at time 0 sec = 0 timescale units.
$end

$dumpvars
1aaaaa
1aaaab
0aaaac
b0 aaaad
b0 aaaae
b0 aaaaf
$end

#10
0aaaaa

#20
1aaaaa
1aaaac
b1 aaaad

#30
0aaaaa

#40
1aaaaa
b10 aaaad

#50
0aaaaa

#60
1aaaaa
0aaaab
b11 aaaad

#70
0aaaaa

#80
1aaaaa
0aaaac

#90
0aaaaa

#100
1aaaaa

#110
0aaaaa

#120
1aaaaa
1aaaab

#130
0aaaaa

#140
1aaaaa
1aaaac
b100 aaaad

#150
0aaaaa

#160
1aaaaa
b101 aaaad

#170
0aaaaa

#180
1aaaaa
0aaaab
b110 aaaad

#190
0aaaaa

#200
1aaaaa
0aaaac

#210
0aaaaa

#220
1aaaaa

#230
0aaaaa

#240
1aaaaa
1aaaab

#250
0aaaaa

#260
1aaaaa
1aaaac
b111 aaaad

#270
0aaaaa

#280
1aaaaa
b1000 aaaad

#290
0aaaaa

#300
1aaaaa
0aaaab
b1001 aaaad

#310
0aaaaa

#320
1aaaaa
0aaaac

#330
0aaaaa

#340
1aaaaa

#350
0aaaaa

#360
1aaaaa
1aaaab

#370
0aaaaa

#380
1aaaaa
1aaaac
b1010 aaaad

#390
0aaaaa

#400
1aaaaa
0aaaac

#410
0aaaaa

#420
1aaaaa
0aaaab

#430
0aaaaa

#440
1aaaaa

#450
0aaaaa

#460
1aaaaa

#470
0aaaaa

#480
1aaaaa
1aaaab

#490
0aaaaa

#500
1aaaaa

#510
0aaaaa

#520
1aaaaa

#530
0aaaaa

#540
1aaaaa
0aaaab

